<?xml version="1.0" encoding="UTF-8" standalone="no"?>
<svg width="21px" height="14px" viewBox="0 0 21 14" version="1.1" xmlns="http://www.w3.org/2000/svg" xmlns:xlink="http://www.w3.org/1999/xlink" xmlns:sketch="http://www.bohemiancoding.com/sketch/ns">
    <g id="Page-1" stroke="none" stroke-width="1" fill="none" fill-rule="evenodd" sketch:type="MSPage">
        <g id="//-MAIN_LANDING-//" sketch:type="MSArtboardGroup" transform="translate(-1025.000000, -407.000000)" fill="#FFFFFF">
            <g id="//-IMG-//" sketch:type="MSLayerGroup" transform="translate(0.000000, 59.000000)">
                <g id="btns" transform="translate(818.000000, 322.000000)" sketch:type="MSShapeGroup">
                    <g id="btn_booking">
                        <g id="content" transform="translate(56.000000, 22.000000)">
                            <g id="right_icon" transform="translate(151.000000, 4.000000)">
                                <path d="M20.0670217,6.33109234 L14.0129595,0.277030104 C13.643586,-0.092343368 13.0445365,-0.092343368 12.6751631,0.277030104 C12.3057139,0.646479252 12.3057139,1.24537736 12.6751631,1.61482651 L17.1143799,6.05404332 L0.945947224,6.05404332 C0.423557329,6.05404332 0,6.47760065 0,6.99999054 C0,7.52230476 0.423557329,7.94593776 0.945947224,7.94593776 L17.1143799,7.94593776 L12.6753144,12.3851546 C12.3058653,12.7546037 12.3058653,13.3535018 12.6753144,13.722951 C12.8599633,13.9075242 13.1021258,14 13.3442126,14 C13.5862994,14 13.8283863,13.9075242 14.0131108,13.722951 L20.0670217,7.66888874 C20.4364709,7.29943959 20.4364709,6.70054149 20.0670217,6.33109234 L20.0670217,6.33109234 Z" id="Shape"></path>
                            </g>
                        </g>
                    </g>
                </g>
            </g>
        </g>
    </g>
</svg>
